^D:\СЕРГЕЙ\C++ PROJECTS\SSOP_LEARN\TEST\TASK_1.2\TASK_1.2\MAIN.CPP
/c /ZI /JMC /nologo /W3 /WX- /diagnostics:column /sdl /Od /Oy- /D WIN32 /D _DEBUG /D _CONSOLE /D _UNICODE /D UNICODE /Gm- /EHsc /RTC1 /MDd /GS /fp:precise /Zc:wchar_t /Zc:forScope /Zc:inline /permissive- /Fo"DEBUG\\" /Fd"DEBUG\VC143.PDB" /external:W3 /Gd /TP /analyze- /FC D:\СЕРГЕЙ\C++ PROJECTS\SSOP_LEARN\TEST\TASK_1.2\TASK_1.2\MAIN.CPP
^D:\СЕРГЕЙ\C++ PROJECTS\SSOP_LEARN\TEST\TASK_1.2\TASK_1.2\NUMBERSDATA.CPP
/c /ZI /JMC /nologo /W3 /WX- /diagnostics:column /sdl /Od /Oy- /D WIN32 /D _DEBUG /D _CONSOLE /D _UNICODE /D UNICODE /Gm- /EHsc /RTC1 /MDd /GS /fp:precise /Zc:wchar_t /Zc:forScope /Zc:inline /permissive- /Fo"DEBUG\\" /Fd"DEBUG\VC143.PDB" /external:W3 /Gd /TP /analyze- /FC D:\СЕРГЕЙ\C++ PROJECTS\SSOP_LEARN\TEST\TASK_1.2\TASK_1.2\NUMBERSDATA.CPP
