^D:\СЕРГЕЙ\C++ PROJECTS\SSOP_LEARN\TEST\TASK_3\TASK_3\X64\DEBUG\DATA.OBJ|D:\СЕРГЕЙ\C++ PROJECTS\SSOP_LEARN\TEST\TASK_3\TASK_3\X64\DEBUG\MAIN.OBJ
D:\Сергей\C++ PROJECTS\SSOP_LEARN\TEST\TASK_3\X64\DEBUG\TASK_3.EXE
D:\Сергей\C++ PROJECTS\SSOP_LEARN\TEST\TASK_3\TASK_3\X64\DEBUG\TASK_3.ILK
D:\Сергей\C++ PROJECTS\SSOP_LEARN\TEST\TASK_3\X64\DEBUG\TASK_3.PDB
